Comandos gitlab

   29  git status
   37  git log
   38  git push
   51  cd descomplicando-gitlab
   61  git status 
   63  git status
   64  git add day-1/
   65  git status
   66  git commit -m "Adcionando imagen1" *
   67  git status
   68  git push
